w 1700 800 ;
c 44 75 0.001 -2 20 20 0 0 255 ;
c 74 25 0.1 5 20 20 0 255 0 ;
c 1003 676 5 -2 21 21 98 113 118 ;
c 885 333 2 -4 24 24 46 120 78 ;
c 973 514 5 5 25 25 111 70 24 ;
c 1439 154 -5 3 26 26 31 230 164 ;
c 366 338 4 2 24 24 251 159 188 ;
c 1497 491 -4 0 30 30 231 124 66 ;
c 47 256 3 -2 24 24 244 92 110 ;
c 1431 553 -5 0 18 18 195 203 32 ;
c 1143 758 -5 5 21 21 107 7 50 ;
c 718 485 3 3 18 18 96 149 53 ;
c 1038 755 -4 -5 11 11 73 234 118 ;
c 653 577 2 5 13 13 61 136 106 ;
c 747 761 1 -1 14 14 33 81 78 ;
c 1136 263 2 2 22 22 135 207 48 ;
c 659 659 -3 2 30 30 5 48 31 ;
c 1630 126 -1 5 24 24 227 163 208 ;
c 728 162 2 -4 21 21 163 96 171 ;
c 1277 543 -2 -3 16 16 95 153 75 ;
c 560 486 5 -4 28 28 130 220 35 ;
c 447 292 -3 -1 24 24 167 110 118 ;
c 1584 265 5 2 30 30 14 129 229 ;
c 659 755 -3 3 21 21 220 46 81 ;
c 1641 325 2 0 16 16 226 123 90 ;
c 186 616 -4 1 13 13 231 24 12 ;
c 1124 134 4 0 30 30 211 198 146 ;
c 273 689 -5 3 17 17 209 227 120 ;
c 666 402 -3 5 14 14 127 250 247 ;
c 1185 769 3 4 27 27 108 14 118 ;
c 732 56 -1 -5 23 23 48 124 22 ;
c 1142 303 -3 -4 27 27 161 26 53 ;
c 1602 504 1 5 26 26 91 186 99 ;
c 767 391 -2 3 20 20 233 6 150 ;
c 460 141 3 -1 17 17 22 135 116 ;
c 390 745 -3 -5 14 14 12 85 117 ;
c 49 266 -5 0 19 19 94 86 217 ;
c 576 163 3 -4 21 21 136 207 25 ;
c 380 718 -4 1 28 28 188 156 52 ;
c 969 549 -4 4 13 13 61 18 129 ;
c 447 651 -3 0 27 27 89 34 10 ;
c 395 140 -4 5 25 25 144 123 56 ;
c 237 103 3 -2 15 15 98 185 145 ;
c 1542 690 -4 0 30 30 254 27 230 ;
c 253 96 5 -4 12 12 174 22 27 ;
c 1516 71 -1 1 13 13 139 213 238 ;
c 1343 478 -2 1 14 14 254 206 71 ;
c 226 261 2 -1 23 23 244 150 226 ;
c 1483 657 -1 -2 18 18 246 145 34 ;
c 1377 596 -3 -5 17 17 184 56 69 ;
c 1069 573 0 2 27 27 170 43 163 ;
c 559 560 2 -3 25 25 75 130 12 ;
c 1488 716 -3 -3 10 10 100 146 215 ;
c 1113 775 2 4 21 21 102 43 139 ;
c 1230 217 0 1 24 24 43 138 178 ;
c 1038 741 5 2 22 22 91 155 236 ;
c 999 479 3 -3 20 20 107 75 160 ;
c 874 509 -3 4 19 19 4 242 182 ;
c 315 118 3 -1 13 13 193 203 198 ;
c 1506 388 0 -2 20 20 200 69 187 ;
c 1607 522 2 -2 15 15 6 154 136 ;
c 1191 124 3 2 27 27 216 239 148 ;
c 86 96 -4 -4 21 21 129 0 229 ;
c 590 583 -4 3 23 23 188 30 160 ;
c 1651 664 -3 0 27 27 43 121 186 ;
c 1128 193 1 -3 13 13 34 77 78 ;
c 236 267 -4 5 24 24 231 207 166 ;
c 406 556 -4 3 12 12 166 135 67 ;
c 1021 586 5 -3 13 13 36 214 219 ;
c 1432 609 4 1 22 22 250 250 140 ;
c 400 457 -4 -5 22 22 251 147 42 ;
c 1668 70 2 -2 26 26 82 37 90 ;
c 971 495 -2 4 17 17 188 148 69 ;
c 506 389 -3 -3 10 10 127 251 9 ;
c 1306 59 3 3 22 22 87 242 74 ;
c 124 619 5 -1 28 28 222 153 109 ;
c 341 780 -3 2 20 20 126 82 173 ;
c 1406 754 5 2 12 12 100 17 251 ;
c 370 155 2 5 22 22 212 63 210 ;
c 951 274 2 0 26 26 19 2 234 ;
c 1447 153 -5 -4 19 19 57 54 187 ;
c 815 573 -2 1 26 26 36 1 77 ;
c 799 767 0 -4 13 13 80 71 244 ;
c 70 63 0 3 17 17 134 108 133 ;
c 22 309 -5 -3 15 15 238 131 100 ;
c 1341 572 1 4 20 20 101 215 125 ;
c 113 273 0 0 25 25 180 79 86 ;
c 1639 625 5 -2 25 25 93 145 127 ;
c 80 355 0 -1 29 29 176 234 0 ;
c 1522 173 -1 0 29 29 13 138 232 ;
c 746 339 -5 -2 28 28 22 66 232 ;
c 1442 76 0 0 19 19 204 80 46 ;
c 218 639 -4 3 18 18 248 2 222 ;
c 1222 540 -4 -4 14 14 86 34 235 ;
c 1047 314 5 1 30 30 134 39 152 ;
c 1334 173 -1 3 30 30 167 168 244 ;
c 1302 718 3 -5 30 30 141 10 174 ;
c 1293 277 2 -3 17 17 126 44 76 ;
c 1354 558 5 -5 15 15 163 39 212 ;
c 398 213 2 3 23 23 119 64 7 ;
c 580 522 -1 -2 10 10 161 127 237 ;
c 829 617 -2 -5 15 15 11 18 233 ;
p 50 300 200 300 1 0 0 0 no-modifier ;
p 300 50 300 200 1 0 0 0 no-modifier ;
p 50 400 200 500 1 0 0 0 turbo ;
p 20 120 80 150 1 0 0 0 no-modifier ;
