w 800 800 ;
c 328 124 -1 -4 19 19 94 121 4 ;
c 371 624 -1 -3 20 20 80 168 208 ;
c 694 586 -3 -3 29 29 229 81 83 ;
c 777 743 -4 4 18 18 230 133 39 ;
c 410 447 3 -5 22 22 89 28 54 ;
c 448 330 1 -3 18 18 192 201 14 ;
c 570 377 0 -4 13 13 119 54 50 ;
c 444 432 -5 4 17 17 132 149 65 ;
c 681 339 -5 -3 22 22 237 127 225 ;
c 705 28 2 1 13 13 55 155 73 ;
c 146 730 3 -5 13 13 180 96 202 ;
c 630 595 -4 1 26 26 11 151 128 ;
c 366 709 -1 3 17 17 56 204 111 ;
c 514 366 1 5 29 29 233 82 255 ;
c 470 102 -4 -3 30 30 57 79 88 ;
c 129 411 4 1 29 29 248 204 183 ;
c 711 45 -1 -5 18 18 151 50 219 ;
c 509 327 3 -2 28 28 97 154 228 ;
c 230 506 4 0 23 23 231 91 0 ;
c 237 449 0 4 17 17 115 251 31 ;
c 29 217 5 -1 24 24 176 102 79 ;
c 386 577 -4 -1 26 26 51 103 142 ;
c 436 515 1 4 10 10 236 218 185 ;
c 350 367 -2 1 25 25 152 20 133 ;
c 474 475 0 0 23 23 142 98 105 ;
c 592 36 -3 5 21 21 162 43 48 ;
c 596 200 5 -3 20 20 101 21 6 ;
c 430 474 1 3 23 23 253 118 194 ;
c 681 258 2 3 27 27 100 242 1 ;
c 204 15 2 -2 10 10 53 219 23 ;
c 587 780 5 -4 10 10 25 187 87 ;
c 394 207 -5 0 14 14 98 132 73 ;
c 34 348 3 -3 18 18 160 16 142 ;
c 676 583 3 5 27 27 62 225 247 ;
c 344 705 2 5 18 18 3 175 186 ;
c 536 134 4 -1 15 15 236 62 148 ;
c 692 659 -5 -4 17 17 247 206 238 ;
c 686 578 0 -2 22 22 100 253 28 ;
c 763 603 -2 -2 14 14 180 235 225 ;
c 785 505 -3 3 13 13 98 88 68 ;
c 427 148 0 -4 29 29 136 176 116 ;
c 95 302 5 2 20 20 119 192 86 ;
c 108 258 4 4 22 22 235 129 94 ;
c 33 769 5 5 19 19 66 40 247 ;
c 307 267 -3 2 14 14 46 145 252 ;
c 520 60 1 2 11 11 179 247 242 ;
c 264 613 3 -3 16 16 48 100 76 ;
c 280 289 2 4 10 10 112 111 242 ;
c 495 695 0 -1 25 25 46 59 13 ;
c 582 717 3 1 25 25 60 240 60 ;
c 575 259 0 0 30 30 204 12 112 ;
c 375 758 -3 5 10 10 127 127 89 ;
c 418 212 5 3 11 11 199 153 142 ;
c 86 366 -1 3 10 10 229 149 123 ;
c 675 458 1 2 16 16 164 75 111 ;
c 565 244 4 -4 14 14 206 147 253 ;
c 404 479 0 1 18 18 166 39 72 ;
c 226 760 5 -4 26 26 119 221 56 ;
c 619 443 -1 -2 23 23 27 172 92 ;
c 396 407 -4 -2 23 23 52 14 96 ;
c 313 35 4 4 11 11 135 243 56 ;
c 398 593 2 -4 10 10 69 164 200 ;
c 416 549 4 0 28 28 164 193 11 ;
c 445 484 -2 2 18 18 171 168 92 ;
c 239 289 2 -2 11 11 146 82 172 ;
c 608 462 -2 5 29 29 1 152 221 ;
c 327 561 1 5 12 12 136 180 152 ;
c 765 130 -5 5 18 18 209 18 68 ;
c 638 466 4 -3 28 28 121 69 124 ;
c 326 608 1 -5 14 14 155 54 183 ;
c 90 229 5 1 29 29 175 177 95 ;
c 77 659 2 1 19 19 144 144 150 ;
c 120 359 0 -1 13 13 165 84 119 ;
c 477 83 -4 -1 24 24 130 131 215 ;
c 415 250 -5 -4 19 19 222 72 219 ;
c 589 231 4 3 24 24 247 226 145 ;
c 68 704 -3 -2 17 17 5 141 122 ;
c 611 94 4 0 10 10 130 59 178 ;
c 200 690 5 -4 12 12 1 186 182 ;
c 523 612 -4 3 29 29 135 73 195 ;
c 357 566 -5 -4 26 26 187 25 253 ;
c 563 205 -2 -1 29 29 228 147 38 ;
c 57 441 4 5 12 12 102 205 140 ;
c 355 249 -5 -5 21 21 251 190 247 ;
c 233 739 -3 -3 26 26 138 156 58 ;
c 61 74 5 5 19 19 57 76 168 ;
c 349 559 -3 1 25 25 234 64 23 ;
c 89 309 3 1 30 30 17 139 150 ;
c 691 763 -1 0 15 15 131 133 222 ;
c 678 281 3 -1 20 20 102 247 147 ;
c 267 323 -3 5 27 27 30 201 83 ;
c 615 311 -3 4 30 30 148 238 68 ;
c 25 477 0 2 14 14 225 234 118 ;
c 324 272 2 -1 14 14 239 17 221 ;
c 75 734 -1 3 29 29 175 38 161 ;
c 44 54 3 4 10 10 49 206 125 ;
c 610 668 3 -2 29 29 21 32 13 ;
c 104 755 1 -4 17 17 188 25 82 ;
c 147 208 -5 -5 28 28 6 129 209 ;
c 606 709 -1 5 20 20 13 146 13 ;
